^C:\USERS\ОЛЬГА\DESKTOP\MACHINE_LEARNING_FZF\DECOMPOSITIONSAMPLE\RELEASE\DECOMPOSITIONSAMPLE.OBJ|C:\USERS\ОЛЬГА\DESKTOP\MACHINE_LEARNING_FZF\DECOMPOSITIONSAMPLE\RELEASE\VISUALISATION.OBJ
/OUT:"C:\USERS\ОЛЬГА\DESKTOP\MACHINE_LEARNING_FZF\RELEASE\DECOMPOSITIONSAMPLE.EXE" /NOLOGO opencv_world300.lib FeatureExtractionLib.lib kernel32.lib user32.lib gdi32.lib winspool.lib comdlg32.lib advapi32.lib shell32.lib ole32.lib oleaut32.lib uuid.lib odbc32.lib odbccp32.lib /MANIFEST /MANIFESTUAC:"level='asInvoker' uiAccess='false'" /manifest:embed /DEBUG /PDB:"C:\USERS\ОЛЬГА\DESKTOP\MACHINE_LEARNING_FZF\RELEASE\DECOMPOSITIONSAMPLE.PDB" /OPT:REF /OPT:ICF /LTCG /TLBID:1 /DYNAMICBASE /NXCOMPAT /IMPLIB:"C:\USERS\ОЛЬГА\DESKTOP\MACHINE_LEARNING_FZF\RELEASE\DECOMPOSITIONSAMPLE.LIB" /MACHINE:X86 /SAFESEH RELEASE\DECOMPOSITIONSAMPLE.OBJRELEASE\VISUALISATION.OBJ
^C:\USERS\534.PD\DESKTOP\MACHINE_LEARNING_FZF\DECOMPOSITIONSAMPLE\RELEASE\DECOMPOSITIONSAMPLE.OBJ|C:\USERS\534.PD\DESKTOP\MACHINE_LEARNING_FZF\DECOMPOSITIONSAMPLE\RELEASE\VISUALISATION.OBJ
/OUT:"C:\USERS\534.PD\DESKTOP\MACHINE_LEARNING_FZF\RELEASE\DECOMPOSITIONSAMPLE.EXE" /NOLOGO opencv_world300.lib FeatureExtractionLib.lib kernel32.lib user32.lib gdi32.lib winspool.lib comdlg32.lib advapi32.lib shell32.lib ole32.lib oleaut32.lib uuid.lib odbc32.lib odbccp32.lib /MANIFEST /MANIFESTUAC:"level='asInvoker' uiAccess='false'" /manifest:embed /DEBUG /PDB:"C:\USERS\534.PD\DESKTOP\MACHINE_LEARNING_FZF\RELEASE\DECOMPOSITIONSAMPLE.PDB" /OPT:REF /OPT:ICF /LTCG /TLBID:1 /DYNAMICBASE /NXCOMPAT /IMPLIB:"C:\USERS\534.PD\DESKTOP\MACHINE_LEARNING_FZF\RELEASE\DECOMPOSITIONSAMPLE.LIB" /MACHINE:X86 /SAFESEH RELEASE\DECOMPOSITIONSAMPLE.OBJRELEASE\VISUALISATION.OBJ
^C:\USERS\ОЛЬГА\DESKTOP\MACHINE_LEARNING_FZF 2\DECOMPOSITIONSAMPLE\RELEASE\DECOMPOSITIONSAMPLE.OBJ|C:\USERS\ОЛЬГА\DESKTOP\MACHINE_LEARNING_FZF 2\DECOMPOSITIONSAMPLE\RELEASE\VISUALISATION.OBJ
/OUT:"C:\USERS\ОЛЬГА\DESKTOP\MACHINE_LEARNING_FZF 2\RELEASE\DECOMPOSITIONSAMPLE.EXE" /NOLOGO opencv_world300.lib FeatureExtractionLib.lib kernel32.lib user32.lib gdi32.lib winspool.lib comdlg32.lib advapi32.lib shell32.lib ole32.lib oleaut32.lib uuid.lib odbc32.lib odbccp32.lib /MANIFEST /MANIFESTUAC:"level='asInvoker' uiAccess='false'" /manifest:embed /DEBUG /PDB:"C:\USERS\ОЛЬГА\DESKTOP\MACHINE_LEARNING_FZF 2\RELEASE\DECOMPOSITIONSAMPLE.PDB" /OPT:REF /OPT:ICF /LTCG /TLBID:1 /DYNAMICBASE /NXCOMPAT /IMPLIB:"C:\USERS\ОЛЬГА\DESKTOP\MACHINE_LEARNING_FZF 2\RELEASE\DECOMPOSITIONSAMPLE.LIB" /MACHINE:X86 /SAFESEH RELEASE\DECOMPOSITIONSAMPLE.OBJRELEASE\VISUALISATION.OBJ
