^C:\USERS\ОЛЬГА\DESKTOP\MACHINE_LEARNING_FZF\FEATUREEXTRACTIONLIB\COMPLEXMOMENTS.CPP|C:\USERS\ОЛЬГА\DESKTOP\MACHINE_LEARNING_FZF\FEATUREEXTRACTIONLIB\FEATUREEXTRACTION.CPP|C:\USERS\ОЛЬГА\DESKTOP\MACHINE_LEARNING_FZF\FEATUREEXTRACTIONLIB\POLYNOMIALMANAGER.CPP|C:\USERS\ОЛЬГА\DESKTOP\MACHINE_LEARNING_FZF\FEATUREEXTRACTIONLIB\RADIALFUNCTIONS.CPP
C:\USERS\ольга\DESKTOP\MACHINE_LEARNING_FZF\FEATUREEXTRACTIONLIB\RELEASE\VC120.PDB
C:\USERS\Ольга\DESKTOP\MACHINE_LEARNING_FZF\FEATUREEXTRACTIONLIB\RELEASE\RADIALFUNCTIONS.OBJ
C:\USERS\Ольга\DESKTOP\MACHINE_LEARNING_FZF\FEATUREEXTRACTIONLIB\RELEASE\POLYNOMIALMANAGER.OBJ
C:\USERS\Ольга\DESKTOP\MACHINE_LEARNING_FZF\FEATUREEXTRACTIONLIB\RELEASE\FEATUREEXTRACTION.OBJ
C:\USERS\Ольга\DESKTOP\MACHINE_LEARNING_FZF\FEATUREEXTRACTIONLIB\RELEASE\COMPLEXMOMENTS.OBJ
^C:\USERS\ОЛЬГА\DESKTOP\MACHINE_LEARNING_FZF\FEATUREEXTRACTIONLIB\COMPLEXMOMENTS.CPP
C:\USERS\ОЛЬГА\DESKTOP\MACHINE_LEARNING_FZF\FEATUREEXTRACTIONLIB\RELEASE\VC120.PDB
^C:\USERS\ОЛЬГА\DESKTOP\MACHINE_LEARNING_FZF\FEATUREEXTRACTIONLIB\FEATUREEXTRACTION.CPP
C:\USERS\ОЛЬГА\DESKTOP\MACHINE_LEARNING_FZF\FEATUREEXTRACTIONLIB\RELEASE\VC120.PDB
^C:\USERS\ОЛЬГА\DESKTOP\MACHINE_LEARNING_FZF\FEATUREEXTRACTIONLIB\POLYNOMIALMANAGER.CPP
C:\USERS\ОЛЬГА\DESKTOP\MACHINE_LEARNING_FZF\FEATUREEXTRACTIONLIB\RELEASE\VC120.PDB
^C:\USERS\ОЛЬГА\DESKTOP\MACHINE_LEARNING_FZF\FEATUREEXTRACTIONLIB\RADIALFUNCTIONS.CPP
C:\USERS\ОЛЬГА\DESKTOP\MACHINE_LEARNING_FZF\FEATUREEXTRACTIONLIB\RELEASE\VC120.PDB
^C:\USERS\534.PD\DESKTOP\MACHINE_LEARNING_FZF\FEATUREEXTRACTIONLIB\COMPLEXMOMENTS.CPP|C:\USERS\534.PD\DESKTOP\MACHINE_LEARNING_FZF\FEATUREEXTRACTIONLIB\FEATUREEXTRACTION.CPP|C:\USERS\534.PD\DESKTOP\MACHINE_LEARNING_FZF\FEATUREEXTRACTIONLIB\IBLOBPROCESSOR_R.CPP|C:\USERS\534.PD\DESKTOP\MACHINE_LEARNING_FZF\FEATUREEXTRACTIONLIB\POLYNOMIALMANAGER.CPP|C:\USERS\534.PD\DESKTOP\MACHINE_LEARNING_FZF\FEATUREEXTRACTIONLIB\POLYNOMIALMANAGER_R.CPP|C:\USERS\534.PD\DESKTOP\MACHINE_LEARNING_FZF\FEATUREEXTRACTIONLIB\RADIALFUNCTIONS.CPP
C:\USERS\534.PD\DESKTOP\MACHINE_LEARNING_FZF\FEATUREEXTRACTIONLIB\RELEASE\VC120.PDB
C:\USERS\534.PD\DESKTOP\MACHINE_LEARNING_FZF\FEATUREEXTRACTIONLIB\RELEASE\RADIALFUNCTIONS.OBJ
C:\USERS\534.PD\DESKTOP\MACHINE_LEARNING_FZF\FEATUREEXTRACTIONLIB\RELEASE\POLYNOMIALMANAGER_R.OBJ
C:\USERS\534.PD\DESKTOP\MACHINE_LEARNING_FZF\FEATUREEXTRACTIONLIB\RELEASE\POLYNOMIALMANAGER.OBJ
C:\USERS\534.PD\DESKTOP\MACHINE_LEARNING_FZF\FEATUREEXTRACTIONLIB\RELEASE\IBLOBPROCESSOR_R.OBJ
C:\USERS\534.PD\DESKTOP\MACHINE_LEARNING_FZF\FEATUREEXTRACTIONLIB\RELEASE\FEATUREEXTRACTION.OBJ
C:\USERS\534.PD\DESKTOP\MACHINE_LEARNING_FZF\FEATUREEXTRACTIONLIB\RELEASE\COMPLEXMOMENTS.OBJ
^C:\USERS\534.PD\DESKTOP\MACHINE_LEARNING_FZF\FEATUREEXTRACTIONLIB\COMPLEXMOMENTS.CPP
C:\USERS\534.PD\DESKTOP\MACHINE_LEARNING_FZF\FEATUREEXTRACTIONLIB\RELEASE\VC120.PDB
^C:\USERS\534.PD\DESKTOP\MACHINE_LEARNING_FZF\FEATUREEXTRACTIONLIB\FEATUREEXTRACTION.CPP
C:\USERS\534.PD\DESKTOP\MACHINE_LEARNING_FZF\FEATUREEXTRACTIONLIB\RELEASE\VC120.PDB
^C:\USERS\534.PD\DESKTOP\MACHINE_LEARNING_FZF\FEATUREEXTRACTIONLIB\IBLOBPROCESSOR_R.CPP
C:\USERS\534.PD\DESKTOP\MACHINE_LEARNING_FZF\FEATUREEXTRACTIONLIB\RELEASE\VC120.PDB
^C:\USERS\534.PD\DESKTOP\MACHINE_LEARNING_FZF\FEATUREEXTRACTIONLIB\POLYNOMIALMANAGER.CPP
C:\USERS\534.PD\DESKTOP\MACHINE_LEARNING_FZF\FEATUREEXTRACTIONLIB\RELEASE\VC120.PDB
^C:\USERS\534.PD\DESKTOP\MACHINE_LEARNING_FZF\FEATUREEXTRACTIONLIB\POLYNOMIALMANAGER_R.CPP
C:\USERS\534.PD\DESKTOP\MACHINE_LEARNING_FZF\FEATUREEXTRACTIONLIB\RELEASE\VC120.PDB
^C:\USERS\534.PD\DESKTOP\MACHINE_LEARNING_FZF\FEATUREEXTRACTIONLIB\RADIALFUNCTIONS.CPP
C:\USERS\534.PD\DESKTOP\MACHINE_LEARNING_FZF\FEATUREEXTRACTIONLIB\RELEASE\VC120.PDB
^C:\USERS\ОЛЬГА\DESKTOP\MACHINE_LEARNING_FZF 2\FEATUREEXTRACTIONLIB\COMPLEXMOMENTS.CPP|C:\USERS\ОЛЬГА\DESKTOP\MACHINE_LEARNING_FZF 2\FEATUREEXTRACTIONLIB\FEATUREEXTRACTION.CPP|C:\USERS\ОЛЬГА\DESKTOP\MACHINE_LEARNING_FZF 2\FEATUREEXTRACTIONLIB\IBLOBPROCESSOR_R.CPP|C:\USERS\ОЛЬГА\DESKTOP\MACHINE_LEARNING_FZF 2\FEATUREEXTRACTIONLIB\POLYNOMIALMANAGER.CPP|C:\USERS\ОЛЬГА\DESKTOP\MACHINE_LEARNING_FZF 2\FEATUREEXTRACTIONLIB\POLYNOMIALMANAGER_R.CPP|C:\USERS\ОЛЬГА\DESKTOP\MACHINE_LEARNING_FZF 2\FEATUREEXTRACTIONLIB\RADIALFUNCTIONS.CPP
C:\USERS\ольга\DESKTOP\MACHINE_LEARNING_FZF 2\FEATUREEXTRACTIONLIB\RELEASE\VC120.PDB
C:\USERS\Ольга\DESKTOP\MACHINE_LEARNING_FZF 2\FEATUREEXTRACTIONLIB\RELEASE\RADIALFUNCTIONS.OBJ
C:\USERS\Ольга\DESKTOP\MACHINE_LEARNING_FZF 2\FEATUREEXTRACTIONLIB\RELEASE\POLYNOMIALMANAGER_R.OBJ
C:\USERS\Ольга\DESKTOP\MACHINE_LEARNING_FZF 2\FEATUREEXTRACTIONLIB\RELEASE\POLYNOMIALMANAGER.OBJ
C:\USERS\Ольга\DESKTOP\MACHINE_LEARNING_FZF 2\FEATUREEXTRACTIONLIB\RELEASE\IBLOBPROCESSOR_R.OBJ
C:\USERS\Ольга\DESKTOP\MACHINE_LEARNING_FZF 2\FEATUREEXTRACTIONLIB\RELEASE\FEATUREEXTRACTION.OBJ
C:\USERS\Ольга\DESKTOP\MACHINE_LEARNING_FZF 2\FEATUREEXTRACTIONLIB\RELEASE\COMPLEXMOMENTS.OBJ
^C:\USERS\ОЛЬГА\DESKTOP\MACHINE_LEARNING_FZF 2\FEATUREEXTRACTIONLIB\COMPLEXMOMENTS.CPP
C:\USERS\ОЛЬГА\DESKTOP\MACHINE_LEARNING_FZF 2\FEATUREEXTRACTIONLIB\RELEASE\VC120.PDB
^C:\USERS\ОЛЬГА\DESKTOP\MACHINE_LEARNING_FZF 2\FEATUREEXTRACTIONLIB\FEATUREEXTRACTION.CPP
C:\USERS\ОЛЬГА\DESKTOP\MACHINE_LEARNING_FZF 2\FEATUREEXTRACTIONLIB\RELEASE\VC120.PDB
^C:\USERS\ОЛЬГА\DESKTOP\MACHINE_LEARNING_FZF 2\FEATUREEXTRACTIONLIB\IBLOBPROCESSOR_R.CPP
C:\USERS\ОЛЬГА\DESKTOP\MACHINE_LEARNING_FZF 2\FEATUREEXTRACTIONLIB\RELEASE\VC120.PDB
^C:\USERS\ОЛЬГА\DESKTOP\MACHINE_LEARNING_FZF 2\FEATUREEXTRACTIONLIB\POLYNOMIALMANAGER.CPP
C:\USERS\ОЛЬГА\DESKTOP\MACHINE_LEARNING_FZF 2\FEATUREEXTRACTIONLIB\RELEASE\VC120.PDB
^C:\USERS\ОЛЬГА\DESKTOP\MACHINE_LEARNING_FZF 2\FEATUREEXTRACTIONLIB\POLYNOMIALMANAGER_R.CPP
C:\USERS\ОЛЬГА\DESKTOP\MACHINE_LEARNING_FZF 2\FEATUREEXTRACTIONLIB\RELEASE\VC120.PDB
^C:\USERS\ОЛЬГА\DESKTOP\MACHINE_LEARNING_FZF 2\FEATUREEXTRACTIONLIB\RADIALFUNCTIONS.CPP
C:\USERS\ОЛЬГА\DESKTOP\MACHINE_LEARNING_FZF 2\FEATUREEXTRACTIONLIB\RELEASE\VC120.PDB
