^D:\РАБОЧИЙ СТОЛ\УЧЁБА\4 КУРС\НОВАЯ ПАПКА\АЛИНА\MACHINE_LEARNING_FZF 2\ANNTRAINER\ANNTRAINER.CPP
D:\рабочий стол\учёба\4 курс\новая папка\алина\MACHINE_LEARNING_FZF 2\ANNTRAINER\DEBUG\VC120.PDB
D:\рабочий стол\учёба\4 курс\новая папка\алина\MACHINE_LEARNING_FZF 2\ANNTRAINER\DEBUG\VC120.IDB
D:\Рабочий стол\Учёба\4 курс\Новая папка\Алина\MACHINE_LEARNING_FZF 2\ANNTRAINER\DEBUG\ANNTRAINER.OBJ
