^D:\РАБОЧИЙ СТОЛ\УЧЁБА\4 КУРС\НОВАЯ ПАПКА\АЛИНА\MACHINE_LEARNING_FZF 2\ANNTRAINER\DEBUG\ANNTRAINER.OBJ
D:\Рабочий стол\Учёба\4 курс\Новая папка\Алина\MACHINE_LEARNING_FZF 2\DEBUG\ANNTRAINER.ILK
D:\Рабочий стол\Учёба\4 курс\Новая папка\Алина\MACHINE_LEARNING_FZF 2\DEBUG\ANNTRAINER.EXE
D:\РАБОЧИЙ СТОЛ\УЧЁБА\4 КУРС\НОВАЯ ПАПКА\АЛИНА\MACHINE_LEARNING_FZF 2\DEBUG\ANNTRAINER.PDB
