^D:\РАБОЧИЙ СТОЛ\УЧЁБА\4 КУРС\НОВАЯ ПАПКА\АЛИНА\MACHINE_LEARNING_FZF 2\DECOMPOSITIONSAMPLE\DEBUG\DECOMPOSITIONSAMPLE.OBJ|D:\РАБОЧИЙ СТОЛ\УЧЁБА\4 КУРС\НОВАЯ ПАПКА\АЛИНА\MACHINE_LEARNING_FZF 2\DECOMPOSITIONSAMPLE\DEBUG\VISUALISATION.OBJ
D:\Рабочий стол\Учёба\4 курс\Новая папка\Алина\MACHINE_LEARNING_FZF 2\INSTRUMENTS\OPENCV300\X86\VC12\LIB\OPENCV_WORLD300D.LIB
D:\Рабочий стол\Учёба\4 курс\Новая папка\Алина\MACHINE_LEARNING_FZF 2\DEBUG\FEATUREEXTRACTIONLIBD.LIB
C:\PROGRAM FILES (X86)\WINDOWS KITS\8.1\LIB\WINV6.3\UM\X86\KERNEL32.LIB
C:\PROGRAM FILES (X86)\WINDOWS KITS\8.1\LIB\WINV6.3\UM\X86\USER32.LIB
C:\PROGRAM FILES (X86)\WINDOWS KITS\8.1\LIB\WINV6.3\UM\X86\GDI32.LIB
C:\PROGRAM FILES (X86)\WINDOWS KITS\8.1\LIB\WINV6.3\UM\X86\WINSPOOL.LIB
C:\PROGRAM FILES (X86)\WINDOWS KITS\8.1\LIB\WINV6.3\UM\X86\COMDLG32.LIB
C:\PROGRAM FILES (X86)\WINDOWS KITS\8.1\LIB\WINV6.3\UM\X86\ADVAPI32.LIB
C:\PROGRAM FILES (X86)\WINDOWS KITS\8.1\LIB\WINV6.3\UM\X86\SHELL32.LIB
C:\PROGRAM FILES (X86)\WINDOWS KITS\8.1\LIB\WINV6.3\UM\X86\OLE32.LIB
C:\PROGRAM FILES (X86)\WINDOWS KITS\8.1\LIB\WINV6.3\UM\X86\OLEAUT32.LIB
C:\PROGRAM FILES (X86)\WINDOWS KITS\8.1\LIB\WINV6.3\UM\X86\UUID.LIB
C:\PROGRAM FILES (X86)\WINDOWS KITS\8.1\LIB\WINV6.3\UM\X86\ODBC32.LIB
C:\PROGRAM FILES (X86)\WINDOWS KITS\8.1\LIB\WINV6.3\UM\X86\ODBCCP32.LIB
D:\Рабочий стол\Учёба\4 курс\Новая папка\Алина\MACHINE_LEARNING_FZF 2\DECOMPOSITIONSAMPLE\DEBUG\DECOMPOSITIONSAMPLE.OBJ
D:\Рабочий стол\Учёба\4 курс\Новая папка\Алина\MACHINE_LEARNING_FZF 2\DECOMPOSITIONSAMPLE\DEBUG\VISUALISATION.OBJ
C:\WINDOWS\SYSTEM32\TZRES.DLL
C:\WINDOWS\GLOBALIZATION\SORTING\SORTDEFAULT.NLS
D:\Установки\VC\LIB\MSVCPRTD.LIB
D:\Установки\VC\LIB\MSVCRTD.LIB
D:\Установки\VC\LIB\OLDNAMES.LIB
